<?xml version="1.0" encoding="utf-8"?>
<!-- Generator: Adobe Illustrator 16.0.0, SVG Export Plug-In . SVG Version: 6.00 Build 0)  -->
<!DOCTYPE svg PUBLIC "-//W3C//DTD SVG 1.1//EN" "http://www.w3.org/Graphics/SVG/1.1/DTD/svg11.dtd">
<svg version="1.1" id="Layer_1" xmlns="http://www.w3.org/2000/svg" xmlns:xlink="http://www.w3.org/1999/xlink" x="0px" y="0px"
	 width="500px" height="500px" viewBox="0 0 500 500" enable-background="new 0 0 500 500" xml:space="preserve">
<path fill-rule="evenodd" clip-rule="evenodd" fill="#D2D3D5" d="M40.387,108.701c30.093,8.85,45.866,6.157,77.676,6.157h10.643
	v39.597h-11.97c-30.733,0-47.283,2.392-76.349-6.156l13.931-17.165L40.387,108.701z"/>
<path fill-rule="evenodd" clip-rule="evenodd" fill="#D2D3D5" d="M14.225,158.06c31.923,7.705,48.234,1.924,81.977,0.856
	l11.29-0.357v38.987l-12.698,0.402c-32.4-0.039-49.795,2.023-80.989-3.499l14.778-17.369L14.225,158.06z"/>
<path fill-rule="evenodd" clip-rule="evenodd" fill="#D2D3D5" d="M79.348,200.369c28.665,7.825,43.398,2.479,73.697,1.394
	l10.051,1.299v37.411l-11.401,0.407c-29.094-0.039-44.714,2.055-72.725-3.553l13.27-17.64L79.348,200.369z"/>
<path fill-rule="evenodd" clip-rule="evenodd" fill="#D2D3D5" d="M79.348,200.369c28.665,7.825,43.398,2.479,73.697,1.394
	l10.051,1.299v37.411l-11.401,0.407c-29.094-0.039-44.714,2.055-72.725-3.553l13.27-17.64L79.348,200.369z"/>
<path fill-rule="evenodd" clip-rule="evenodd" fill="#D2D3D5" d="M48.062,243.757c32.02,7.825,48.38,2.654,82.227,1.57
	l11.324,38.533l-12.736,0.408c-32.499-0.039-49.948,2.054-81.236-3.554l14.823-17.641L48.062,243.757z"/>
<path fill-rule="evenodd" clip-rule="evenodd" fill="#0098DA" d="M49.483,104.748c28.664,8.85,38.785,10.109,69.084,10.109h168.499
	v39.598H117.304c-29.274,0-40.136-1.562-67.82-10.111l13.269-17.165L49.483,104.748z"/>
<path fill-rule="evenodd" clip-rule="evenodd" fill="#ED2F59" d="M23.366,148.136c28.664,8.85,38.785,10.109,69.084,10.109h194.616
	v39.598H91.187c-29.274,0-40.135-1.562-67.82-10.11l14.534-16.85L23.366,148.136z"/>
<path fill-rule="evenodd" clip-rule="evenodd" fill="#FFCC29" d="M78.97,191.524c28.665,8.851,38.786,10.11,69.086,10.11h139.01
	v39.598H146.791c-29.273,0-40.135-1.562-67.82-10.109l12.871-17.173L78.97,191.524z"/>
<path fill-rule="evenodd" clip-rule="evenodd" fill="#A8CF45" d="M57.487,234.913c28.665,8.85,38.785,10.108,69.085,10.108h160.495
	v39.598H125.307c-29.274,0-40.135-1.561-67.82-10.109l12.954-14.322L57.487,234.913z"/>
<g>
	<g>
		<g>
			<g>
				
					<rect x="346.774" y="300.381" transform="matrix(0.6667 -0.7454 0.7454 0.6667 -109.1023 370.7867)" fill="#262262" width="26.462" height="13.986"/>
				
					<rect x="350.501" y="309.848" transform="matrix(0.6667 -0.7453 0.7453 0.6667 -111.4723 378.1726)" fill="#262262" width="33.203" height="7.752"/>
			</g>
			<path fill="#262262" d="M487.097,393.454c5.808,5.196,6.422,13.984,1.373,19.626l-9.144,10.227
				c-5.052,5.646-13.853,6.01-19.661,0.815l-101.627-90.904c-5.81-5.196-0.433-8.623,4.618-14.27l9.146-10.225
				c5.048-5.645,7.858-11.371,13.668-6.175L487.097,393.454z"/>
		</g>
		<path fill="#262262" d="M162.312,141.38c-47.427,53.021-42.892,134.447,10.129,181.872
			c53.019,47.426,134.446,42.89,181.871-10.129c47.425-53.02,42.893-134.446-10.128-181.872
			C291.164,83.825,209.737,88.36,162.312,141.38z M337.778,298.331c-39.258,43.888-106.658,47.642-150.545,8.385
			c-43.887-39.256-47.641-106.657-8.385-150.543c39.256-43.887,106.657-47.641,150.543-8.385
			C373.279,187.044,377.033,254.445,337.778,298.331z"/>
	</g>
	<g opacity="0.5">
		<g>
			<linearGradient id="SVGID_1_" gradientUnits="userSpaceOnUse" x1="85.9585" y1="-103.2412" x2="291.933" y2="291.7198">
				<stop  offset="0" style="stop-color:#414042"/>
				<stop  offset="0.3949" style="stop-color:#434244;stop-opacity:0.6051"/>
				<stop  offset="0.5372" style="stop-color:#4A494B;stop-opacity:0.4628"/>
				<stop  offset="0.6386" style="stop-color:#555456;stop-opacity:0.3614"/>
				<stop  offset="0.7206" style="stop-color:#666567;stop-opacity:0.2794"/>
				<stop  offset="0.7909" style="stop-color:#7C7B7D;stop-opacity:0.2091"/>
				<stop  offset="0.8531" style="stop-color:#979798;stop-opacity:0.1469"/>
				<stop  offset="0.9093" style="stop-color:#B7B7B8;stop-opacity:0.0907"/>
				<stop  offset="0.9593" style="stop-color:#DCDBDC;stop-opacity:0.0407"/>
				<stop  offset="1" style="stop-color:#FFFFFF;stop-opacity:0"/>
			</linearGradient>
			<path fill="url(#SVGID_1_)" d="M162.312,141.38c-47.427,53.021-42.892,134.447,10.129,181.872
				c53.019,47.426,134.446,42.89,181.871-10.129c47.425-53.02,42.893-134.446-10.128-181.872
				C291.164,83.825,209.737,88.36,162.312,141.38z M337.778,298.331c-39.258,43.888-106.658,47.642-150.545,8.385
				c-43.887-39.256-47.641-106.657-8.385-150.543c39.256-43.887,106.657-47.641,150.543-8.385
				C373.279,187.044,377.033,254.445,337.778,298.331z"/>
		</g>
	</g>
</g>
<g>
	<rect x="195.478" y="178.796" fill-rule="evenodd" clip-rule="evenodd" fill="#399FB8" width="125.67" height="106.238"/>
	<path fill-rule="evenodd" clip-rule="evenodd" fill="#21839C" d="M230.396,280.214h55.832V242.64c0-31.854-55.832-31.768-55.832,0
		V280.214z"/>
	<path fill-rule="evenodd" clip-rule="evenodd" fill="#9FECFF" d="M233.387,285.034h49.852v-43.017c0-27.225-49.852-27.258-49.852,0
		V285.034z"/>
	<rect x="195.478" y="280.214" fill-rule="evenodd" clip-rule="evenodd" fill="#21839C" width="37.909" height="4.82"/>
	<polygon fill-rule="evenodd" clip-rule="evenodd" fill="#FF9274" points="177.89,208.728 338.736,208.729 321.148,178.796 
		195.478,178.796 	"/>
	<g>
		<path fill-rule="evenodd" clip-rule="evenodd" fill="#EDC256" d="M192.512,208.729c0,4.149,3.273,7.513,7.311,7.513
			c4.039,0,7.312-3.364,7.312-7.513H192.512z"/>
		<path fill-rule="evenodd" clip-rule="evenodd" fill="#EDC256" d="M221.757,208.729c0,4.149,3.274,7.513,7.312,7.513
			c4.038,0,7.311-3.364,7.311-7.513H221.757z"/>
		<path fill-rule="evenodd" clip-rule="evenodd" fill="#EDC256" d="M251.002,208.729c0,4.149,3.272,7.513,7.311,7.513
			s7.312-3.364,7.312-7.513H251.002z"/>
		<path fill-rule="evenodd" clip-rule="evenodd" fill="#EDC256" d="M280.247,208.729c0,4.149,3.273,7.513,7.311,7.513
			c4.038,0,7.312-3.364,7.312-7.513H280.247z"/>
		<path fill-rule="evenodd" clip-rule="evenodd" fill="#EDC256" d="M309.491,208.729c0,4.149,3.271,7.513,7.311,7.513
			c4.038,0,7.312-3.364,7.312-7.513H309.491z"/>
	</g>
	<g>
		<path fill-rule="evenodd" clip-rule="evenodd" fill="#E85931" d="M192.512,208.729c0,4.149-3.274,7.513-7.311,7.513
			c-4.038,0-7.312-3.364-7.312-7.513H192.512z"/>
		<path fill-rule="evenodd" clip-rule="evenodd" fill="#E85931" d="M221.757,208.729c0,4.149-3.273,7.513-7.311,7.513
			c-4.038,0-7.311-3.364-7.311-7.513H221.757z"/>
		<path fill-rule="evenodd" clip-rule="evenodd" fill="#E85931" d="M251.002,208.729c0,4.149-3.274,7.513-7.311,7.513
			c-4.038,0-7.312-3.364-7.312-7.513H251.002z"/>
		<path fill-rule="evenodd" clip-rule="evenodd" fill="#E85931" d="M280.247,208.729c0,4.149-3.274,7.513-7.312,7.513
			c-4.038,0-7.312-3.364-7.312-7.513H280.247z"/>
		<path fill-rule="evenodd" clip-rule="evenodd" fill="#E85931" d="M309.491,208.729c0,4.149-3.273,7.513-7.311,7.513
			c-4.039,0-7.312-3.364-7.312-7.513H309.491z"/>
		<path fill-rule="evenodd" clip-rule="evenodd" fill="#E85931" d="M338.736,208.729c0,4.149-3.273,7.513-7.312,7.513
			c-4.039,0-7.311-3.364-7.311-7.513H338.736z"/>
	</g>
	<polygon fill-rule="evenodd" clip-rule="evenodd" fill="#FFD873" points="192.512,208.728 324.114,208.729 309.724,178.796 
		206.902,178.796 	"/>
	<polygon fill-rule="evenodd" clip-rule="evenodd" fill="#FF9274" points="207.135,208.728 309.491,208.729 298.299,178.796 
		218.327,178.796 	"/>
	<polygon fill-rule="evenodd" clip-rule="evenodd" fill="#FFD873" points="221.757,208.728 294.869,208.729 286.874,178.796 
		229.751,178.796 	"/>
	<polygon fill-rule="evenodd" clip-rule="evenodd" fill="#FF9274" points="236.38,208.728 280.247,208.729 275.45,178.796 
		241.176,178.796 	"/>
	<polygon fill-rule="evenodd" clip-rule="evenodd" fill="#FFD873" points="251.002,208.728 265.624,208.729 264.025,178.796 
		252.601,178.796 	"/>
	<path fill-rule="evenodd" clip-rule="evenodd" fill="#21839C" d="M290.462,268.642h26.746v-38.43c0-15.261-26.746-15.219-26.746,0
		V268.642z"/>
	<path fill-rule="evenodd" clip-rule="evenodd" fill="#9FECFF" d="M293.199,265.844h21.272v-35.465c0-11.618-21.272-11.632-21.272,0
		V265.844z"/>
	<g>
		<path fill-rule="evenodd" clip-rule="evenodd" fill="#DEF8FF" d="M293.199,247.795l20.638-20.637
			c-0.321-0.751-0.751-1.426-1.273-2.023L293.199,244.5V247.795z"/>
		<path fill-rule="evenodd" clip-rule="evenodd" fill="#DEF8FF" d="M293.199,257.682l21.272-21.271v-6.032
			c0-0.184-0.006-0.365-0.017-0.543l-21.256,21.256V257.682z"/>
		<polygon fill-rule="evenodd" clip-rule="evenodd" fill="#DEF8FF" points="293.199,264.273 314.472,243.003 314.472,239.708 
			293.199,260.979 		"/>
	</g>
	<path fill-rule="evenodd" clip-rule="evenodd" fill="#21839C" d="M199.598,268.642h26.747v-38.43c0-15.261-26.747-15.219-26.747,0
		V268.642z"/>
	<path fill-rule="evenodd" clip-rule="evenodd" fill="#9FECFF" d="M202.335,265.844h21.272v-35.465c0-11.618-21.272-11.632-21.272,0
		V265.844z"/>
	<g>
		<path fill-rule="evenodd" clip-rule="evenodd" fill="#DEF8FF" d="M202.335,247.795l20.638-20.637
			c-0.321-0.751-0.751-1.426-1.272-2.023L202.335,244.5V247.795z"/>
		<path fill-rule="evenodd" clip-rule="evenodd" fill="#DEF8FF" d="M202.335,257.682l21.272-21.271v-6.032
			c0-0.184-0.005-0.365-0.017-0.543l-21.256,21.256V257.682z"/>
		<polygon fill-rule="evenodd" clip-rule="evenodd" fill="#DEF8FF" points="202.335,264.273 223.607,243.003 223.607,239.708 
			202.335,260.979 		"/>
	</g>
	<rect x="283.239" y="280.214" fill-rule="evenodd" clip-rule="evenodd" fill="#21839C" width="37.909" height="4.82"/>
	<path fill-rule="evenodd" clip-rule="evenodd" fill="#DEF8FF" d="M258.161,265.671l25.031-25.029
		c-0.08-1.235-0.265-2.41-0.546-3.525l-24.485,24.484V265.671L258.161,265.671z M258.161,257.529v-8.141l20.157-20.156
		c1.335,1.424,2.45,3.042,3.277,4.865L258.161,257.529L258.161,257.529z M258.161,245.318v-4.07l15.641-15.638
		c0.841,0.507,1.646,1.063,2.402,1.668L258.161,245.318z M238.8,285.034l19.361-19.363v-4.07l-23.433,23.434H238.8L238.8,285.034z
		 M258.161,241.249v4.07l-24.774,24.775v-4.071L258.161,241.249L258.161,241.249z M258.161,249.389v8.141l-24.774,24.775v-8.141
		L258.161,249.389z"/>
</g>
</svg>
