<?xml version="1.0" encoding="utf-8"?>
<!-- Generator: Adobe Illustrator 16.0.0, SVG Export Plug-In . SVG Version: 6.00 Build 0)  -->
<!DOCTYPE svg PUBLIC "-//W3C//DTD SVG 1.1//EN" "http://www.w3.org/Graphics/SVG/1.1/DTD/svg11.dtd">
<svg version="1.1" id="Layer_1" xmlns="http://www.w3.org/2000/svg" xmlns:xlink="http://www.w3.org/1999/xlink" x="0px" y="0px"
	 width="612px" height="792px" viewBox="0 0 612 792" enable-background="new 0 0 612 792" xml:space="preserve">
<g>
	<g>
		<path fill="#E7B52C" d="M498.726,595.904c-25.749,9.412-51.501,23.075-77.252,39.141c16.149-31.676,32.3-62.405,48.446-91.737
			C479.521,560.313,489.122,577.813,498.726,595.904z"/>
		<path fill="#B38632" d="M39.925,420.134c17.797,70.147,35.593,137.072,53.389,201.388
			c135.136,52.782,270.274-44.962,405.412-25.617c-9.604-18.091-19.204-35.591-28.806-52.597
			C326.588,498.36,183.255,563.742,39.925,420.134z"/>
		<path fill="#E5AE2F" d="M602.864,424.585c-118.601-115.403-369.839-165.289-595.75-130.3
			c35.004,10.708,67.126,37.475,67.126,37.475s-6.59,15.648-21.003,46.122c158.621-34.628,421.425,52.791,524.095,148.371
			C585.842,491.668,594.354,457.758,602.864,424.585z"/>
		<path fill="#508BC9" stroke="#FFFFFF" stroke-width="3" stroke-miterlimit="10" d="M544.109,404.771
			c0-126.277-102.365-228.643-228.639-228.643c-126.274,0-228.642,102.366-228.642,228.643
			c0,126.274,102.367,228.641,228.642,228.641c2.274,0,4.538-0.044,6.799-0.111l25.821,54.948l42.63-67.528
			C480.023,589.605,544.109,504.679,544.109,404.771z"/>
		<text transform="matrix(1.0281 0 0 1 133.5049 442.7236)" fill="#FFFFFF" font-family="'Titillium-Black'" font-size="247.1841">90</text>
		
			<text transform="matrix(0.5994 0 0 0.583 394.2373 360.4111)" fill="#FFFFFF" font-family="'Titillium-Black'" font-size="247.1841">%</text>
		<path opacity="0.14" fill="#010101" d="M544.109,404.771c0-3.902-0.099-7.781-0.292-11.634
			c-116.101-24.884-249.777,31.177-323.111,34.299c-77.418,3.292-131.119-42.829-131.119-42.829l-2.169,3.786
			c-0.381,5.41-0.589,10.867-0.589,16.378c0,24.412,3.84,47.926,10.926,69.982L308.094,577.85
			c33.831-14.125,76.672-29.235,127.715-36.893c28.928-4.338,45.802-2.301,62.219,1.475
			C526.953,504.139,544.109,456.461,544.109,404.771z"/>
		<text transform="matrix(1.0308 0 0 1 108.291 508.499)" fill="#FFFFFF" font-family="'Titillium-Black'" font-size="55.1081">ONLY THIS WEEK</text>
		<path fill="#BA4088" d="M39.831,420.442c187.68,120.86,375.354-116.718,563.034,4.143c-8.51,33.173-17.022,67.083-25.532,101.667
			c-161.34-57.3-322.679,126.267-484.019,95.27C75.486,557.318,57.661,490.496,39.831,420.442z"/>
		<text transform="matrix(1.0281 0 0 1 108.291 506.8984)" fill="#FFFFFF" font-family="'Titillium-Semibold'" font-size="27.1662">SUPER</text>
		<text transform="matrix(1.0281 0 0 1 108.2915 541.8613)" fill="#FFFFFF" font-family="'Titillium-Black'" font-size="41.6617">DESCUENTO</text>
	</g>
</g>
</svg>
